<svg class="bob" font-family="arial" font-size="14" height="208" width="104" xmlns="http://www.w3.org/2000/svg">
<defs>
<marker id="triangle" markerHeight="8" markerWidth="8" orient="auto" refX="4" refY="2" viewBox="0 0 8 4">
<polygon class="fg_fill" points="0,0 0,4 8,2 0,0"/>
</marker>
<marker id="clear_triangle" markerHeight="10" markerWidth="10" orient="auto" refX="1" refY="7" viewBox="0 0 20 14">
<polygon class="bg_fill fg_stroke" points="2,2 2,12 18,7 2,2"/>
</marker>
<marker id="circle" markerHeight="5" markerWidth="5" orient="auto" refX="10" refY="10" viewBox="0 0 20 20">
<circle class="fg_fill" cx="10" cy="10" r="8"/>
</marker>
<marker id="square" markerHeight="5" markerWidth="5" orient="auto" refX="10" refY="10" viewBox="0 0 20 20">
<rect class="fg_fill" height="20" width="20" x="0" y="0"/>
</marker>
<marker id="open_circle" markerHeight="10" markerWidth="10" orient="auto" refX="10" refY="10" viewBox="0 0 20 20">
<circle class="bg_fill fg_stroke" cx="10" cy="10" r="4"/>
</marker>
<marker id="big_open_circle" markerHeight="20" markerWidth="20" orient="auto" refX="20" refY="20" viewBox="0 0 40 40">
<circle class="bg_fill fg_stroke" cx="20" cy="20" r="6"/>
</marker>
</defs>
<style type="text/css">

rect.backdrop {
    fill: white;
}

.fg_fill {
    fill: black;
}


.bg_fill {
    fill: white;
}

.fg_stroke {
    stroke: black;
    stroke-width: 2;
}

.no_fill {
    fill: none;
}

.dashed {
    stroke-dasharray: 5;
}


text{
    fill: black;
}

line, path {
    stroke-linecap: round;
    stroke-linejoin: miter;
    stroke-opacity: 1;
    fill-opacity: 1;
}




tspan.head{
    fill: none;
    stroke: none;
}
    
</style>
<rect class="backdrop" height="208" width="104" x="0" y="0"/>
<g>
<line class="fg_stroke" x1="4" x2="4" y1="8" y2="200"/>
<line class="fg_stroke" x1="4" x2="100" y1="8" y2="8"/>
<line class="fg_stroke" x1="4" x2="100" y1="200" y2="200"/>
<line class="fg_stroke" x1="100" x2="100" y1="8" y2="200"/>
</g>
<g>
<line class="fg_stroke" x1="12" x2="12" y1="40" y2="120"/>
<line class="fg_stroke" x1="12" x2="92" y1="40" y2="40"/>
<line class="fg_stroke" x1="12" x2="92" y1="120" y2="120"/>
<line class="fg_stroke" x1="92" x2="92" y1="40" y2="120"/>
</g>
<g>
<line class="fg_stroke" x1="12" x2="12" y1="152" y2="184"/>
<line class="fg_stroke" x1="12" x2="92" y1="152" y2="152"/>
<line class="fg_stroke" x1="12" x2="92" y1="184" y2="184"/>
<line class="fg_stroke" x1="92" x2="92" y1="152" y2="184"/>
</g>
<g>
<line class="fg_stroke" x1="20" x2="20" y1="72" y2="104"/>
<line class="fg_stroke" x1="20" x2="84" y1="72" y2="72"/>
<line class="fg_stroke" x1="20" x2="84" y1="104" y2="104"/>
<line class="fg_stroke" x1="84" x2="84" y1="72" y2="104"/>
</g>
<g>
<text class="fg_fill" x="25" y="28">
level
</text>
</g>
<g>
<text class="fg_fill" x="25" y="60">
level
</text>
</g>
<g>
<text class="fg_fill" x="25" y="92">
level
</text>
</g>
<g>
<text class="fg_fill" x="25" y="140">
level
</text>
</g>
<g>
<text class="fg_fill" x="25" y="172">
level
</text>
</g>
<g>
<text class="fg_fill" x="73" y="28">
0
</text>
</g>
<g>
<text class="fg_fill" x="73" y="60">
1
</text>
</g>
<g>
<text class="fg_fill" x="73" y="92">
2
</text>
</g>
<g>
<text class="fg_fill" x="73" y="140">
0
</text>
</g>
<g>
<text class="fg_fill" x="73" y="172">
1
</text>
</g>
</svg>